{
    "defaultSeverity": "error",
    "extends": [
        "tslint:recommended"
    ],
    "jsRules": {},
    "rules": {
        "quotemark": [
            true,
            "single"
        ],
        "comment-format": [
            true,
            "check-space"
        ],
        "ordered-imports": false,
        "no-consecutive-blank-lines": [
            true,
            2
        ],
        "space-before-function-paren": [
            true,
            {
                "anonymous": "always",
                "named": "never",
                "asyncArrow": "always"
            }
        ],
        "interface-name": false,
        "object-literal-sort-keys": false,
        "prefer-for-of": false,
        "no-bitwise": false,
        "max-line-length": [
            true,
            {
                "limit": 140,
                "ignore-pattern": "^import |^export {(.*?)}"
            }
        ],
        "no-empty-interface": false,
        "max-classes-per-file": false
    },
    "rulesDirectory": []
}