[
    {
        "name": "BankingSoftware",
        "id": "1.395"
    },
    {
        "name": "WebsiteOptimizationSEO",
        "id": "1.400"
    },
    {
        "name": "DatabaseAdministrator",
        "id": "1.420"
    },
    {
        "name": "Startups",
        "id": "1.474"
    },
    {
        "name": "GamingSoftware",
        "id": "1.475"
    },
    {
        "name": "CRMSystems",
        "id": "1.536"
    },
    {
        "name": "CTOCIOITDirector",
        "id": "1.3"
    },
    {
        "name": "WebEngineer",
        "id": "1.9"
    },
    {
        "name": "WebMaster",
        "id": "1.10"
    },
    {
        "name": "Analyst",
        "id": "1.25"
    },
    {
        "name": "ArtDirector",
        "id": "1.30"
    },
    {
        "name": "EnterpriseManagementSystemsERP",
        "id": "1.50"
    },
    {
        "name": "Engineer",
        "id": "1.82"
    },
    {
        "name": "theInternet",
        "id": "1.89"
    },
    {
        "name": "ComputerSecurity",
        "id": "1.110"
    },
    {
        "name": "ConsultingOutsourcing",
        "id": "1.113"
    },
    {
        "name": "Content",
        "id": "1.116"
    },
    {
        "name": "Testing",
        "id": "1.117"
    },
    {
        "name": "Marketing",
        "id": "1.137"
    },
    {
        "name": "Multimedia",
        "id": "1.161"
    },
    {
        "name": "EntryLevelLittleExperience",
        "id": "1.172"
    },
    {
        "name": "DataTransferAndInternetAccess",
        "id": "1.203"
    },
    {
        "name": "SupportHelpdesk",
        "id": "1.211"
    },
    {
        "name": "ProgrammingDevelopment",
        "id": "1.221"
    },
    {
        "name": "Sales",
        "id": "1.225"
    },
    {
        "name": "Producer",
        "id": "1.232"
    },
    {
        "name": "BusinessDevelopment",
        "id": "1.246"
    },
    {
        "name": "NetworkTechnologies",
        "id": "1.270"
    },
    {
        "name": "SystemIntegration",
        "id": "1.272"
    },
    {
        "name": "SystemAdministrator",
        "id": "1.273"
    },
    {
        "name": "ComputerAidedDesignSystems",
        "id": "1.274"
    },
    {
        "name": "CellularWirelessTechnologies",
        "id": "1.277"
    },
    {
        "name": "Telecommunications",
        "id": "1.295"
    },
    {
        "name": "TechnicalWriter",
        "id": "1.296"
    },
    {
        "name": "ProjectManagement",
        "id": "1.327"
    },
    {
        "name": "ECommerce",
        "id": "1.359"
    },
    {
        "name": "Economist",
        "id": "2.425"
    },
    {
        "name": "PlanningAndEconomicManagement",
        "id": "2.434"
    },
    {
        "name": "IFRSIFRS",
        "id": "2.454"
    },
    {
        "name": "AccountantCalculator",
        "id": "2.463"
    },
    {
        "name": "FixedAssets",
        "id": "2.464"
    },
    {
        "name": "GAAP",
        "id": "2.465"
    },
    {
        "name": "ACCA",
        "id": "2.467"
    },
    {
        "name": "CommoditiesAndMaterials",
        "id": "2.468"
    },
    {
        "name": "PrimaryDocuments",
        "id": "2.469"
    },
    {
        "name": "CIPA",
        "id": "2.523"
    },
    {
        "name": "Audit",
        "id": "2.33"
    },
    {
        "name": "Accountant",
        "id": "2.43"
    },
    {
        "name": "BudgetingAndPlanning",
        "id": "2.44"
    },
    {
        "name": "ExchangeControl",
        "id": "2.46"
    },
    {
        "name": "TreasuryDepartment",
        "id": "2.100"
    },
    {
        "name": "CashierCollector",
        "id": "2.102"
    },
    {
        "name": "CreditControl",
        "id": "2.125"
    },
    {
        "name": "Taxes",
        "id": "2.164"
    },
    {
        "name": "EntryLevelLittleExperience",
        "id": "2.179"
    },
    {
        "name": "Offshore",
        "id": "2.200"
    },
    {
        "name": "CalculationOfCost",
        "id": "2.249"
    },
    {
        "name": "AccountingManagement",
        "id": "2.261"
    },
    {
        "name": "AccountingOfWages",
        "id": "2.335"
    },
    {
        "name": "AccountingOfBillsAndPayments",
        "id": "2.337"
    },
    {
        "name": "TheFinancialAnalysis",
        "id": "2.342"
    },
    {
        "name": "FinancialControl",
        "id": "2.343"
    },
    {
        "name": "FinancialManagement",
        "id": "2.344"
    },
    {
        "name": "Securities",
        "id": "2.351"
    },
    {
        "name": "Assistant",
        "id": "3.423"
    },
    {
        "name": "MysteryShopper",
        "id": "3.507"
    },
    {
        "name": "InterviewingInterviewer",
        "id": "3.508"
    },
    {
        "name": "Promoter",
        "id": "3.509"
    },
    {
        "name": "BelowTheLineBTL",
        "id": "3.1"
    },
    {
        "name": "PRMarketingCommunications",
        "id": "3.8"
    },
    {
        "name": "Analyst",
        "id": "3.26"
    },
    {
        "name": "ArtDirector",
        "id": "3.31"
    },
    {
        "name": "BrandManagement",
        "id": "3.40"
    },
    {
        "name": "Imposer",
        "id": "3.48"
    },
    {
        "name": "Designer",
        "id": "3.64"
    },
    {
        "name": "InternetMarketing",
        "id": "3.90"
    },
    {
        "name": "MarketResearch",
        "id": "3.98"
    },
    {
        "name": "Consultant",
        "id": "3.114"
    },
    {
        "name": "Copywriter",
        "id": "3.119"
    },
    {
        "name": "AccountManager",
        "id": "3.148"
    },
    {
        "name": "ProductManagement",
        "id": "3.150"
    },
    {
        "name": "Merchandising",
        "id": "3.151"
    },
    {
        "name": "OutdoorAdvertising",
        "id": "3.166"
    },
    {
        "name": "BeginnerLittleExperience",
        "id": "3.171"
    },
    {
        "name": "PrintableAdvertisement",
        "id": "3.206"
    },
    {
        "name": "PlanningAdvertising",
        "id": "3.209"
    },
    {
        "name": "PoliticalPR",
        "id": "3.213"
    },
    {
        "name": "PromotionSpecialEvents",
        "id": "3.230"
    },
    {
        "name": "AdvertisingProduction",
        "id": "3.236"
    },
    {
        "name": "RadioAdvertising",
        "id": "3.244"
    },
    {
        "name": "AdvertisingAgent",
        "id": "3.253"
    },
    {
        "name": "TVAdvertising",
        "id": "3.294"
    },
    {
        "name": "TradeMarketing",
        "id": "3.305"
    },
    {
        "name": "MarketingManagement",
        "id": "3.318"
    },
    {
        "name": "ProjectManagement",
        "id": "3.328"
    },
    {
        "name": "ConsecutiveTranslation",
        "id": "4.428"
    },
    {
        "name": "OfficeWork",
        "id": "4.429"
    },
    {
        "name": "EveningSecretary",
        "id": "4.456"
    },
    {
        "name": "Cleaner",
        "id": "4.494"
    },
    {
        "name": "Archivist",
        "id": "4.32"
    },
    {
        "name": "DataInput",
        "id": "4.47"
    },
    {
        "name": "Driver",
        "id": "4.52"
    },
    {
        "name": "Courier",
        "id": "4.127"
    },
    {
        "name": "EntryLevelLittleExperience",
        "id": "4.181"
    },
    {
        "name": "PersonalAssistant",
        "id": "4.205"
    },
    {
        "name": "WrittenTranslation",
        "id": "4.207"
    },
    {
        "name": "Reception",
        "id": "4.255"
    },
    {
        "name": "Secretary",
        "id": "4.264"
    },
    {
        "name": "SimultaneousTranslation",
        "id": "4.271"
    },
    {
        "name": "CallCenterEmployee",
        "id": "4.278"
    },
    {
        "name": "OfficeManagerOfficeManager",
        "id": "4.332"
    },
    {
        "name": "AccountingOfTurnover",
        "id": "4.338"
    },
    {
        "name": "AXO",
        "id": "4.374"
    },
    {
        "name": "MortgageMortgageLending",
        "id": "5.399"
    },
    {
        "name": "MutualFunds",
        "id": "5.424"
    },
    {
        "name": "Economist",
        "id": "5.426"
    },
    {
        "name": "FinancialMonitoring",
        "id": "5.444"
    },
    {
        "name": "SMECrediting",
        "id": "5.450"
    },
    {
        "name": "Risks:Operating",
        "id": "5.457"
    },
    {
        "name": "Risks:Financial",
        "id": "5.458"
    },
    {
        "name": "Risks:Market",
        "id": "5.459"
    },
    {
        "name": "CarLoans",
        "id": "5.460"
    },
    {
        "name": "Factoring",
        "id": "5.534"
    },
    {
        "name": "WorkWithProblemBorrowers",
        "id": "5.579"
    },
    {
        "name": "PrivateBanking",
        "id": "5.691"
    },
    {
        "name": "Forex",
        "id": "5.4"
    },
    {
        "name": "SharesSecurities",
        "id": "5.23"
    },
    {
        "name": "Analyst",
        "id": "5.27"
    },
    {
        "name": "AuditInternalControl",
        "id": "5.34"
    },
    {
        "name": "FixedIncomePaper",
        "id": "5.41"
    },
    {
        "name": "Accountant",
        "id": "5.42"
    },
    {
        "name": "ExchangeControl",
        "id": "5.45"
    },
    {
        "name": "InternalOperationsBackOffice",
        "id": "5.51"
    },
    {
        "name": "MoneyMarket",
        "id": "5.61"
    },
    {
        "name": "InvestmentCompany",
        "id": "5.79"
    },
    {
        "name": "TradingDealing",
        "id": "5.101"
    },
    {
        "name": "CashServicesCollection",
        "id": "5.103"
    },
    {
        "name": "CommercialBank",
        "id": "5.106"
    },
    {
        "name": "CorporateFinancing",
        "id": "5.121"
    },
    {
        "name": "CorrespondentInternationalRelations",
        "id": "5.123"
    },
    {
        "name": "Risks:Credit",
        "id": "5.124"
    },
    {
        "name": "Credits",
        "id": "5.126"
    },
    {
        "name": "Leasing",
        "id": "5.132"
    },
    {
        "name": "Risks:Leasing",
        "id": "5.133"
    },
    {
        "name": "Taxes",
        "id": "5.163"
    },
    {
        "name": "EntryLevelLittleExperience",
        "id": "5.177"
    },
    {
        "name": "ExchangeOfficesATMs",
        "id": "5.192"
    },
    {
        "name": "OPERA",
        "id": "5.195"
    },
    {
        "name": "PlasticCards",
        "id": "5.210"
    },
    {
        "name": "PortfolioInvestment",
        "id": "5.215"
    },
    {
        "name": "AttractingCustomers",
        "id": "5.219"
    },
    {
        "name": "SaleOfFinancialProducts",
        "id": "5.224"
    },
    {
        "name": "ProjectFinance",
        "id": "5.234"
    },
    {
        "name": "DirectInvestments",
        "id": "5.241"
    },
    {
        "name": "Calculations",
        "id": "5.250"
    },
    {
        "name": "RetailBusiness",
        "id": "5.257"
    },
    {
        "name": "AccountingManagement",
        "id": "5.262"
    },
    {
        "name": "TradeFinancing",
        "id": "5.304"
    },
    {
        "name": "Branches",
        "id": "5.341"
    },
    {
        "name": "ValuationOfCollateralValueOfProperty",
        "id": "5.365"
    },
    {
        "name": "Risks:Other",
        "id": "5.366"
    },
    {
        "name": "MethodologyBankingTechnologies",
        "id": "5.367"
    },
    {
        "name": "DevelopmentOfNewProductsMarketing",
        "id": "5.368"
    },
    {
        "name": "Reporting",
        "id": "5.369"
    },
    {
        "name": "TreasuryLiquidityManagement",
        "id": "5.370"
    },
    {
        "name": "Loans:Retail",
        "id": "5.371"
    },
    {
        "name": "Budgeting",
        "id": "5.372"
    },
    {
        "name": "Emissions",
        "id": "5.394"
    },
    {
        "name": "CompensationAndBenefits",
        "id": "6.107"
    },
    {
        "name": "EntryLevelLittleExperience",
        "id": "6.184"
    },
    {
        "name": "StaffDevelopment",
        "id": "6.247"
    },
    {
        "name": "Recruitment",
        "id": "6.254"
    },
    {
        "name": "Trainings",
        "id": "6.309"
    },
    {
        "name": "PersonnelManagement",
        "id": "6.319"
    },
    {
        "name": "PersonnelAccounting",
        "id": "6.336"
    },
    {
        "name": "TiresWheels",
        "id": "7.455"
    },
    {
        "name": "Toner",
        "id": "7.502"
    },
    {
        "name": "AutoMechanic",
        "id": "7.503"
    },
    {
        "name": "AutoDriver",
        "id": "7.565"
    },
    {
        "name": "CarWashman",
        "id": "7.566"
    },
    {
        "name": "AutoParts",
        "id": "7.14"
    },
    {
        "name": "Sale",
        "id": "7.222"
    },
    {
        "name": "Production",
        "id": "7.235"
    },
    {
        "name": "LeasingLeasing",
        "id": "7.239"
    },
    {
        "name": "ServiceMaintenance",
        "id": "7.267"
    },
    {
        "name": "BeginnerLittleExperience",
        "id": "7.392"
    },
    {
        "name": "CCTVSystems",
        "id": "8.461"
    },
    {
        "name": "DebtCollectionCollectorActivity",
        "id": "8.462"
    },
    {
        "name": "Collector",
        "id": "8.519"
    },
    {
        "name": "FireSafety",
        "id": "8.575"
    },
    {
        "name": "PropertySecurity",
        "id": "8.77"
    },
    {
        "name": "PersonalSafety",
        "id": "8.135"
    },
    {
        "name": "SecurityGuard",
        "id": "8.202"
    },
    {
        "name": "TheHeadOfTheSecurityCouncil",
        "id": "8.260"
    },
    {
        "name": "EconomicAndInformationSecurity",
        "id": "8.356"
    },
    {
        "name": "Jurisprudence",
        "id": "9.448"
    },
    {
        "name": "Insurance",
        "id": "9.452"
    },
    {
        "name": "SportClubsFitnessBeautySalons",
        "id": "9.521"
    },
    {
        "name": "ProcurementManagement",
        "id": "9.532"
    },
    {
        "name": "CrisisManagement",
        "id": "9.562"
    },
    {
        "name": "Administration",
        "id": "9.22"
    },
    {
        "name": "ExtractionOfRawMaterials",
        "id": "9.67"
    },
    {
        "name": "Investments",
        "id": "9.78"
    },
    {
        "name": "InformationTechnologyInternetMultimedia",
        "id": "9.94"
    },
    {
        "name": "ArtsEntertainmentMedia",
        "id": "9.95"
    },
    {
        "name": "CommercialBank",
        "id": "9.105"
    },
    {
        "name": "Counseling",
        "id": "9.115"
    },
    {
        "name": "MarketingAdvertisingPR",
        "id": "9.139"
    },
    {
        "name": "MedicinePharmaceutics",
        "id": "9.145"
    },
    {
        "name": "ScienceEducation",
        "id": "9.168"
    },
    {
        "name": "Sales",
        "id": "9.226"
    },
    {
        "name": "ProductionTechnology",
        "id": "9.238"
    },
    {
        "name": "ConstructionRealEstate",
        "id": "9.289"
    },
    {
        "name": "TransportLogistics",
        "id": "9.307"
    },
    {
        "name": "TourismHotelsRestaurants",
        "id": "9.312"
    },
    {
        "name": "SmallBusinessManagement",
        "id": "9.317"
    },
    {
        "name": "HumanResourceManagementTrainings",
        "id": "9.321"
    },
    {
        "name": "Finance",
        "id": "9.345"
    },
    {
        "name": "Drilling",
        "id": "10.470"
    },
    {
        "name": "MineSurveyor",
        "id": "10.471"
    },
    {
        "name": "Gas",
        "id": "10.472"
    },
    {
        "name": "GeologicalProspecting",
        "id": "10.54"
    },
    {
        "name": "Engineer",
        "id": "10.80"
    },
    {
        "name": "Oil",
        "id": "10.191"
    },
    {
        "name": "Ore",
        "id": "10.258"
    },
    {
        "name": "Coal",
        "id": "10.315"
    },
    {
        "name": "BusinessManagement",
        "id": "10.323"
    },
    {
        "name": "EntryLevelLittleExperience",
        "id": "10.393"
    },
    {
        "name": "Cinema",
        "id": "11.436"
    },
    {
        "name": "DesignGraphicsPainting",
        "id": "11.62"
    },
    {
        "name": "Journalism",
        "id": "11.71"
    },
    {
        "name": "PublishingActivities",
        "id": "11.76"
    },
    {
        "name": "CasinoAndGaming",
        "id": "11.99"
    },
    {
        "name": "LiteraryEditorialActivity",
        "id": "11.134"
    },
    {
        "name": "Fashion",
        "id": "11.157"
    },
    {
        "name": "Music",
        "id": "11.160"
    },
    {
        "name": "EntryLevelLittleExperience",
        "id": "11.173"
    },
    {
        "name": "Press",
        "id": "11.218"
    },
    {
        "name": "Other",
        "id": "11.240"
    },
    {
        "name": "Radio",
        "id": "11.243"
    },
    {
        "name": "TV",
        "id": "11.293"
    },
    {
        "name": "ThePhoto",
        "id": "11.347"
    },
    {
        "name": "InternetECommerce",
        "id": "12.5"
    },
    {
        "name": "KnowledgeManagement",
        "id": "12.6"
    },
    {
        "name": "PRConsulting",
        "id": "12.7"
    },
    {
        "name": "InformationTechnology",
        "id": "12.92"
    },
    {
        "name": "MarketResearch",
        "id": "12.97"
    },
    {
        "name": "CorporateFinance",
        "id": "12.122"
    },
    {
        "name": "EntryLevelLittleExperience",
        "id": "12.180"
    },
    {
        "name": "OrganizationalConsulting",
        "id": "12.197"
    },
    {
        "name": "ReengineeringOfBusinessProcesses",
        "id": "12.251"
    },
    {
        "name": "ReengineeringOutsourcingOfFinancialFunctions",
        "id": "12.252"
    },
    {
        "name": "Strategy",
        "id": "12.280"
    },
    {
        "name": "PracticeManagement",
        "id": "12.322"
    },
    {
        "name": "ProjectManagement",
        "id": "12.326"
    },
    {
        "name": "ManagementConsulting",
        "id": "12.331"
    },
    {
        "name": "TheProperty",
        "id": "12.376"
    },
    {
        "name": "ClinicalResearches",
        "id": "13.398"
    },
    {
        "name": "Production",
        "id": "13.432"
    },
    {
        "name": "Registry",
        "id": "13.433"
    },
    {
        "name": "Optics",
        "id": "13.438"
    },
    {
        "name": "Psychology",
        "id": "13.447"
    },
    {
        "name": "MedicalRepresentative",
        "id": "13.489"
    },
    {
        "name": "MedicalAdvisor",
        "id": "13.537"
    },
    {
        "name": "DefectologistSpeechTherapist",
        "id": "13.567"
    },
    {
        "name": "Pharmacist",
        "id": "13.578"
    },
    {
        "name": "ExpertDoctor",
        "id": "13.587"
    },
    {
        "name": "VeterinaryMedicine",
        "id": "13.49"
    },
    {
        "name": "LaboratoryAssistant",
        "id": "13.128"
    },
    {
        "name": "Therapist",
        "id": "13.131"
    },
    {
        "name": "Marketing",
        "id": "13.138"
    },
    {
        "name": "JuniorAndMiddleMedicalStaff",
        "id": "13.155"
    },
    {
        "name": "EntryLevelLittleExperience",
        "id": "13.185"
    },
    {
        "name": "Pharmacist",
        "id": "13.220"
    },
    {
        "name": "Sales",
        "id": "13.227"
    },
    {
        "name": "Medications",
        "id": "13.228"
    },
    {
        "name": "MedicalEquipment",
        "id": "13.229"
    },
    {
        "name": "Certification",
        "id": "13.268"
    },
    {
        "name": "Biotechnology",
        "id": "14.37"
    },
    {
        "name": "HumanitarianSciences",
        "id": "14.60"
    },
    {
        "name": "EngineeringSciences",
        "id": "14.87"
    },
    {
        "name": "InformaticsInformationSystems",
        "id": "14.91"
    },
    {
        "name": "Mathematics",
        "id": "14.141"
    },
    {
        "name": "EarthSciences",
        "id": "14.169"
    },
    {
        "name": "EntryLevelLittleExperience",
        "id": "14.178"
    },
    {
        "name": "Teaching",
        "id": "14.217"
    },
    {
        "name": "Physics",
        "id": "14.340"
    },
    {
        "name": "Chemistry",
        "id": "14.349"
    },
    {
        "name": "EconomyManagement",
        "id": "14.355"
    },
    {
        "name": "Languages",
        "id": "14.364"
    },
    {
        "name": "Accounting",
        "id": "15.730"
    },
    {
        "name": "Procurement",
        "id": "15.731"
    },
    {
        "name": "ExtractionOfRawMaterials",
        "id": "15.68"
    },
    {
        "name": "InformationTechnologyInternetMultimedia",
        "id": "15.93"
    },
    {
        "name": "ArtsEntertainmentMedia",
        "id": "15.96"
    },
    {
        "name": "MarketingAdvertisingPR",
        "id": "15.140"
    },
    {
        "name": "MedicinePharmaceutics",
        "id": "15.146"
    },
    {
        "name": "ScienceEducation",
        "id": "15.167"
    },
    {
        "name": "ProductionTechnologies",
        "id": "15.237"
    },
    {
        "name": "Insurance",
        "id": "15.281"
    },
    {
        "name": "BuildingArchitecture",
        "id": "15.288"
    },
    {
        "name": "TransportLogistics",
        "id": "15.308"
    },
    {
        "name": "TourismHotelsRestaurants",
        "id": "15.313"
    },
    {
        "name": "PersonnelManagement",
        "id": "15.320"
    },
    {
        "name": "FinanceBankingInvestments",
        "id": "15.346"
    },
    {
        "name": "Lawyers",
        "id": "15.363"
    },
    {
        "name": "AdministrativeStaff",
        "id": "15.388"
    },
    {
        "name": "Sales",
        "id": "15.389"
    },
    {
        "name": "CarBusiness",
        "id": "15.390"
    },
    {
        "name": "Counseling",
        "id": "15.391"
    },
    {
        "name": "ResearchInstitute",
        "id": "16.435"
    },
    {
        "name": "Archivist",
        "id": "16.569"
    },
    {
        "name": "Attaché",
        "id": "16.570"
    },
    {
        "name": "Librarian",
        "id": "16.571"
    },
    {
        "name": "Municipality",
        "id": "16.658"
    },
    {
        "name": "Charity",
        "id": "16.38"
    },
    {
        "name": "PublicOrganizations",
        "id": "16.194"
    },
    {
        "name": "Government",
        "id": "16.216"
    },
    {
        "name": "ElectrotechnicalEquipmentLightEngineering",
        "id": "17.397"
    },
    {
        "name": "ChemicalProducts",
        "id": "17.401"
    },
    {
        "name": "Certification",
        "id": "17.405"
    },
    {
        "name": "ConstructionMaterials",
        "id": "17.417"
    },
    {
        "name": "Agriculture",
        "id": "17.418"
    },
    {
        "name": "TextilesClothingShoes",
        "id": "17.440"
    },
    {
        "name": "Franchising",
        "id": "17.441"
    },
    {
        "name": "Furniture",
        "id": "17.443"
    },
    {
        "name": "SecuritySystems",
        "id": "17.446"
    },
    {
        "name": "SanitaryEngineering",
        "id": "17.486"
    },
    {
        "name": "Appliances",
        "id": "17.487"
    },
    {
        "name": "SalesmanInTheStore",
        "id": "17.520"
    },
    {
        "name": "TradingNetworks",
        "id": "17.535"
    },
    {
        "name": "SalesByPhoneTelemarketing",
        "id": "17.538"
    },
    {
        "name": "Tenders",
        "id": "17.572"
    },
    {
        "name": "CleaningService",
        "id": "17.580"
    },
    {
        "name": "FinancialServices",
        "id": "17.623"
    },
    {
        "name": "AutomationSolutions",
        "id": "17.625"
    },
    {
        "name": "CarsSpareParts",
        "id": "17.15"
    },
    {
        "name": "Alcohol",
        "id": "17.24"
    },
    {
        "name": "PetroleumPetroleumGasoline",
        "id": "17.59"
    },
    {
        "name": "DealerNetworks",
        "id": "17.65"
    },
    {
        "name": "Distribution",
        "id": "17.66"
    },
    {
        "name": "ComputerTechnology",
        "id": "17.111"
    },
    {
        "name": "ComputerPrograms",
        "id": "17.112"
    },
    {
        "name": "MedicinePharmaceutics",
        "id": "17.144"
    },
    {
        "name": "AccountManager",
        "id": "17.149"
    },
    {
        "name": "MetalRolling",
        "id": "17.152"
    },
    {
        "name": "MultilevelMarketing",
        "id": "17.156"
    },
    {
        "name": "EntryLevelLittleExperience",
        "id": "17.183"
    },
    {
        "name": "Wholesale",
        "id": "17.196"
    },
    {
        "name": "Food",
        "id": "17.231"
    },
    {
        "name": "DirectSales",
        "id": "17.242"
    },
    {
        "name": "Retail",
        "id": "17.256"
    },
    {
        "name": "TelecommunicationsNetworkSolutions",
        "id": "17.269"
    },
    {
        "name": "MachineToolsHeavyEquipment",
        "id": "17.279"
    },
    {
        "name": "GoodsForBusiness",
        "id": "17.301"
    },
    {
        "name": "FMCGConsumerGoods",
        "id": "17.302"
    },
    {
        "name": "TradingInCommodities",
        "id": "17.303"
    },
    {
        "name": "SalesRepresentative",
        "id": "17.306"
    },
    {
        "name": "SalesManagement",
        "id": "17.324"
    },
    {
        "name": "ServicesForBusiness",
        "id": "17.333"
    },
    {
        "name": "ServicesForThePopulation",
        "id": "17.334"
    },
    {
        "name": "NonFerrousMetals",
        "id": "17.350"
    },
    {
        "name": "ElectronicsPhotoVideo",
        "id": "17.358"
    },
    {
        "name": "Certification",
        "id": "18.404"
    },
    {
        "name": "ChiefMechanicalEngineer",
        "id": "18.431"
    },
    {
        "name": "ProjectManagement",
        "id": "18.451"
    },
    {
        "name": "JeweleryIndustry",
        "id": "18.453"
    },
    {
        "name": "Metrologist",
        "id": "18.488"
    },
    {
        "name": "Constructor",
        "id": "18.568"
    },
    {
        "name": "NuclearPower",
        "id": "18.585"
    },
    {
        "name": "AviationIndustry",
        "id": "18.13"
    },
    {
        "name": "AutomotiveIndustry",
        "id": "18.16"
    },
    {
        "name": "ChiefAgronomist",
        "id": "18.56"
    },
    {
        "name": "ChiefEngineer",
        "id": "18.57"
    },
    {
        "name": "ProcurementAndSupply",
        "id": "18.73"
    },
    {
        "name": "Zootechnician",
        "id": "18.75"
    },
    {
        "name": "Engineer",
        "id": "18.81"
    },
    {
        "name": "EngineerMeatAndPoultryProcessing",
        "id": "18.84"
    },
    {
        "name": "EngineerProductionAndProcessingOfCereals",
        "id": "18.85"
    },
    {
        "name": "EngineerSugarProduction",
        "id": "18.86"
    },
    {
        "name": "QualityControl",
        "id": "18.118"
    },
    {
        "name": "LightIndustry",
        "id": "18.129"
    },
    {
        "name": "WoodworkingTimberIndustry",
        "id": "18.130"
    },
    {
        "name": "MechanicalEngineering",
        "id": "18.142"
    },
    {
        "name": "FurnitureManufacturing",
        "id": "18.143"
    },
    {
        "name": "Metallurgy",
        "id": "18.153"
    },
    {
        "name": "EntryLevelLittleExperience",
        "id": "18.174"
    },
    {
        "name": "OilRefining",
        "id": "18.190"
    },
    {
        "name": "OccupationalSafetyAndHealth",
        "id": "18.201"
    },
    {
        "name": "FoodIndustry",
        "id": "18.208"
    },
    {
        "name": "Polygraphy",
        "id": "18.212"
    },
    {
        "name": "RadioelectronicIndustry",
        "id": "18.245"
    },
    {
        "name": "ManagementOfTheEnterprise",
        "id": "18.263"
    },
    {
        "name": "AgriculturalProduction",
        "id": "18.265"
    },
    {
        "name": "BuildingMaterials",
        "id": "18.290"
    },
    {
        "name": "TobaccoIndustry",
        "id": "18.291"
    },
    {
        "name": "Technologist",
        "id": "18.297"
    },
    {
        "name": "TechnologistMeatAndPoultryProcessing",
        "id": "18.298"
    },
    {
        "name": "TechnologistProductionAndProcessingOfCereals",
        "id": "18.299"
    },
    {
        "name": "TechnologistSugarProduction",
        "id": "18.300"
    },
    {
        "name": "WorkshopManagement",
        "id": "18.330"
    },
    {
        "name": "PharmaceuticalIndustry",
        "id": "18.339"
    },
    {
        "name": "ChemicalIndustry",
        "id": "18.348"
    },
    {
        "name": "Ecologist",
        "id": "18.354"
    },
    {
        "name": "PowerEngineering",
        "id": "18.360"
    },
    {
        "name": "PowerGenerator",
        "id": "18.361"
    },
    {
        "name": "Shipbuilding",
        "id": "18.373"
    },
    {
        "name": "Actuary",
        "id": "19.421"
    },
    {
        "name": "SettlementOfLosses",
        "id": "19.430"
    },
    {
        "name": "Reinsurance",
        "id": "19.483"
    },
    {
        "name": "ExpertDoctor",
        "id": "19.586"
    },
    {
        "name": "AutoInsurance",
        "id": "19.18"
    },
    {
        "name": "Agent",
        "id": "19.19"
    },
    {
        "name": "Underwriter",
        "id": "19.28"
    },
    {
        "name": "ComplexInsuranceOfIndividuals",
        "id": "19.108"
    },
    {
        "name": "ComprehensiveInsuranceOfLegalEntities",
        "id": "19.109"
    },
    {
        "name": "HealthInsurance",
        "id": "19.147"
    },
    {
        "name": "EntryLevelLittleExperience",
        "id": "19.170"
    },
    {
        "name": "HeadOf",
        "id": "19.259"
    },
    {
        "name": "BusinessInsurance",
        "id": "19.282"
    },
    {
        "name": "LifeInsurance",
        "id": "19.283"
    },
    {
        "name": "InsuranceOfRealEstate",
        "id": "19.284"
    },
    {
        "name": "LiabilityInsurance",
        "id": "19.285"
    },
    {
        "name": "ExpertAppraiser",
        "id": "19.357"
    },
    {
        "name": "Exploitation",
        "id": "20.396"
    },
    {
        "name": "HousingAndUtilities",
        "id": "20.445"
    },
    {
        "name": "GeodesyAndCartography",
        "id": "20.484"
    },
    {
        "name": "WorkersOfConstructionSpecialties",
        "id": "20.490"
    },
    {
        "name": "LandManagement",
        "id": "20.525"
    },
    {
        "name": "Evaluation",
        "id": "20.526"
    },
    {
        "name": "HeatingVentilationAndAirConditioning",
        "id": "20.527"
    },
    {
        "name": "WaterSupplyAndSewerage",
        "id": "20.528"
    },
    {
        "name": "Tenders",
        "id": "20.573"
    },
    {
        "name": "Agent",
        "id": "20.20"
    },
    {
        "name": "HotelsShops",
        "id": "20.58"
    },
    {
        "name": "DesignDecoration",
        "id": "20.63"
    },
    {
        "name": "Accomodation",
        "id": "20.70"
    },
    {
        "name": "Engineer",
        "id": "20.83"
    },
    {
        "name": "BeginnerLittleExperience",
        "id": "20.186"
    },
    {
        "name": "NonResidentialPremises",
        "id": "20.189"
    },
    {
        "name": "DesigningArchitecture",
        "id": "20.233"
    },
    {
        "name": "Building",
        "id": "20.287"
    },
    {
        "name": "ProjectManagement",
        "id": "20.325"
    },
    {
        "name": "TheDeveloper",
        "id": "20.375"
    },
    {
        "name": "Foreman",
        "id": "20.387"
    },
    {
        "name": "civilAviation",
        "id": "21.402"
    },
    {
        "name": "BusinessAviation",
        "id": "21.403"
    },
    {
        "name": "ContainerShipping",
        "id": "21.480"
    },
    {
        "name": "Dispatcher",
        "id": "21.481"
    },
    {
        "name": "Driver",
        "id": "21.482"
    },
    {
        "name": "Forwarder",
        "id": "21.506"
    },
    {
        "name": "Storekeeper",
        "id": "21.563"
    },
    {
        "name": "WorkWarehouse",
        "id": "21.564"
    },
    {
        "name": "AirFreight",
        "id": "21.12"
    },
    {
        "name": "Trucking",
        "id": "21.17"
    },
    {
        "name": "ForeignTradeActivities",
        "id": "21.53"
    },
    {
        "name": "RailTransportation",
        "id": "21.69"
    },
    {
        "name": "ProcurementSupply",
        "id": "21.74"
    },
    {
        "name": "Logistics",
        "id": "21.136"
    },
    {
        "name": "SeaRiverTransportations",
        "id": "21.158"
    },
    {
        "name": "EntryLevelLittleExperience",
        "id": "21.176"
    },
    {
        "name": "StorageFacilities",
        "id": "21.275"
    },
    {
        "name": "CustomsClearance",
        "id": "21.292"
    },
    {
        "name": "Pipelines",
        "id": "21.310"
    },
    {
        "name": "Cook",
        "id": "22.491"
    },
    {
        "name": "Hostess",
        "id": "22.504"
    },
    {
        "name": "Doorman",
        "id": "22.505"
    },
    {
        "name": "Sommelier",
        "id": "22.518"
    },
    {
        "name": "Animation",
        "id": "22.529"
    },
    {
        "name": "VisaProcessing",
        "id": "22.530"
    },
    {
        "name": "ManagementOfTouristBusiness",
        "id": "22.531"
    },
    {
        "name": "Flights",
        "id": "22.11"
    },
    {
        "name": "Banquets",
        "id": "22.35"
    },
    {
        "name": "Reservation",
        "id": "22.39"
    },
    {
        "name": "GuideTourGuide",
        "id": "22.55"
    },
    {
        "name": "Catering",
        "id": "22.104"
    },
    {
        "name": "EntryLevelLittleExperience",
        "id": "22.175"
    },
    {
        "name": "WaiterBarman",
        "id": "22.193"
    },
    {
        "name": "OrganizationOfMeetingsConferences",
        "id": "22.198"
    },
    {
        "name": "OrganizationOfTouristProducts",
        "id": "22.199"
    },
    {
        "name": "KitchenStaff",
        "id": "22.204"
    },
    {
        "name": "SaleOfTouristServices",
        "id": "22.223"
    },
    {
        "name": "AccommodationGuestServices",
        "id": "22.248"
    },
    {
        "name": "ManagementOfHotels",
        "id": "22.316"
    },
    {
        "name": "ManagementOfRestaurantsBars",
        "id": "22.329"
    },
    {
        "name": "Chef",
        "id": "22.353"
    },
    {
        "name": "Copyright",
        "id": "23.422"
    },
    {
        "name": "InternationalLaw",
        "id": "23.442"
    },
    {
        "name": "LandLaw",
        "id": "23.476"
    },
    {
        "name": "ContractLaw",
        "id": "23.477"
    },
    {
        "name": "RegistrationOfLegalEntities",
        "id": "23.478"
    },
    {
        "name": "DebtCollectionCollectorActivity",
        "id": "23.479"
    },
    {
        "name": "AntimonopolyLaw",
        "id": "23.539"
    },
    {
        "name": "Compliance",
        "id": "23.2"
    },
    {
        "name": "Lawyer",
        "id": "23.21"
    },
    {
        "name": "Arbitration",
        "id": "23.29"
    },
    {
        "name": "BankingLaw",
        "id": "23.36"
    },
    {
        "name": "Lawmaking",
        "id": "23.72"
    },
    {
        "name": "IntellectualProperty",
        "id": "23.88"
    },
    {
        "name": "CorporateLaw",
        "id": "23.120"
    },
    {
        "name": "LawOfTheSea",
        "id": "23.159"
    },
    {
        "name": "TaxLaw",
        "id": "23.165"
    },
    {
        "name": "EntryLevelLittleExperience",
        "id": "23.182"
    },
    {
        "name": "TheProperty",
        "id": "23.187"
    },
    {
        "name": "SubsoilUse",
        "id": "23.188"
    },
    {
        "name": "Assistant",
        "id": "23.214"
    },
    {
        "name": "FamilyLaw",
        "id": "23.266"
    },
    {
        "name": "M&A",
        "id": "23.276"
    },
    {
        "name": "InsuranceLaw",
        "id": "23.286"
    },
    {
        "name": "LaborLaw",
        "id": "23.311"
    },
    {
        "name": "CriminalLaw",
        "id": "23.314"
    },
    {
        "name": "SecuritiesCapitalMarkets",
        "id": "23.352"
    },
    {
        "name": "TheLegalCounsel",
        "id": "23.362"
    },
    {
        "name": "Masseur",
        "id": "24.492"
    },
    {
        "name": "TheHairdresser",
        "id": "24.493"
    },
    {
        "name": "Manicure",
        "id": "24.624"
    },
    {
        "name": "Cosmetology",
        "id": "24.377"
    },
    {
        "name": "CoachingStaff",
        "id": "24.378"
    },
    {
        "name": "Administration",
        "id": "24.379"
    },
    {
        "name": "Sales",
        "id": "24.380"
    },
    {
        "name": "ServiceEngineer",
        "id": "25.381"
    },
    {
        "name": "HeadOfTheServiceCenter",
        "id": "25.382"
    },
    {
        "name": "ServiceManagerNetworkingAndTelecommunicationTechnologies",
        "id": "25.383"
    },
    {
        "name": "ServiceManagerIndustrialEquipment",
        "id": "25.384"
    },
    {
        "name": "ServiceManagerTransport",
        "id": "25.385"
    },
    {
        "name": "InstallationAndConfigurationOfEquipment",
        "id": "25.386"
    },
    {
        "name": "Certification",
        "id": "26.406"
    },
    {
        "name": "CarsSpareParts",
        "id": "26.407"
    },
    {
        "name": "Alcohol",
        "id": "26.408"
    },
    {
        "name": "PetroleumPetroleumGasoline",
        "id": "26.409"
    },
    {
        "name": "ComputerTechnology",
        "id": "26.410"
    },
    {
        "name": "Pharmaceuticals",
        "id": "26.411"
    },
    {
        "name": "Food",
        "id": "26.412"
    },
    {
        "name": "GoodsForBusiness",
        "id": "26.413"
    },
    {
        "name": "ElectronicsPhotoVideo",
        "id": "26.414"
    },
    {
        "name": "ChemicalProducts",
        "id": "26.415"
    },
    {
        "name": "FMCGConsumerGoods",
        "id": "26.416"
    },
    {
        "name": "EntryLevelLittleExperience",
        "id": "26.419"
    },
    {
        "name": "MetalRolling",
        "id": "26.427"
    },
    {
        "name": "ProcurementManagement",
        "id": "26.437"
    },
    {
        "name": "ConstructionMaterials",
        "id": "26.439"
    },
    {
        "name": "ElectricalEquipmentLighting",
        "id": "26.449"
    },
    {
        "name": "MachineToolsHeavyEquipment",
        "id": "26.473"
    },
    {
        "name": "Tenders",
        "id": "26.574"
    },
    {
        "name": "TeacherGovernessNanny",
        "id": "27.496"
    },
    {
        "name": "housekeeperDomesticWorkerChambermaid",
        "id": "27.497"
    },
    {
        "name": "PersonalDriver",
        "id": "27.498"
    },
    {
        "name": "Gardener",
        "id": "27.499"
    },
    {
        "name": "Cook",
        "id": "27.500"
    },
    {
        "name": "Nurse",
        "id": "27.501"
    },
    {
        "name": "HousekeepingAssistantManager",
        "id": "27.533"
    },
    {
        "name": "Tutor",
        "id": "27.584"
    },
    {
        "name": "Loader",
        "id": "29.495"
    },
    {
        "name": "Locksmith",
        "id": "29.510"
    },
    {
        "name": "TurnerMillingMachine",
        "id": "29.511"
    },
    {
        "name": "Fasovshchik",
        "id": "29.512"
    },
    {
        "name": "Joiner",
        "id": "29.513"
    },
    {
        "name": "Welder",
        "id": "29.514"
    },
    {
        "name": "AnElectrician",
        "id": "29.515"
    },
    {
        "name": "Seamstress",
        "id": "29.516"
    },
    {
        "name": "Collector",
        "id": "29.517"
    },
    {
        "name": "CloakroomAttendant",
        "id": "29.540"
    },
    {
        "name": "JanitorCleaner",
        "id": "29.541"
    },
    {
        "name": "RoadWorkers",
        "id": "29.542"
    },
    {
        "name": "Tinsmith",
        "id": "29.543"
    },
    {
        "name": "CartridgeRefiller",
        "id": "29.544"
    },
    {
        "name": "PackerPackerPacker",
        "id": "29.545"
    },
    {
        "name": "Cabinetmaker",
        "id": "29.546"
    },
    {
        "name": "Blacksmith",
        "id": "29.547"
    },
    {
        "name": "Liftter",
        "id": "29.548"
    },
    {
        "name": "ProductionEngineer",
        "id": "29.549"
    },
    {
        "name": "TheStageOperator",
        "id": "29.550"
    },
    {
        "name": "ExcavatorDriver",
        "id": "29.551"
    },
    {
        "name": "Mechanic",
        "id": "29.552"
    },
    {
        "name": "MachineOperator",
        "id": "29.553"
    },
    {
        "name": "ShepherdShepherd",
        "id": "29.554"
    },
    {
        "name": "Rewinders",
        "id": "29.555"
    },
    {
        "name": "Handyman",
        "id": "29.556"
    },
    {
        "name": "Plumber",
        "id": "29.557"
    },
    {
        "name": "Grinder",
        "id": "29.558"
    },
    {
        "name": "Plasterer",
        "id": "29.559"
    },
    {
        "name": "ElectricianCableMan",
        "id": "29.560"
    },
    {
        "name": "Jeweler",
        "id": "29.561"
    },
    {
        "name": "Installer",
        "id": "29.581"
    },
    {
        "name": "Conductor",
        "id": "29.582"
    },
    {
        "name": "Painter",
        "id": "29.583"
    },
    {
        "name": "Other",
        "id": "29.588"
    },
    {
        "name": "Accompanist",
        "id": "29.162"
    },
    {
        "name": "",
        "id": ""
    }
]